…
Reorder the levels of year, artist\_name or title
-------------------------------------------------

-   I chose to reorder the levels of year by mean artist hotttnesss in descending order. I then used the arrange function to arrange the data in the same way to confirn that the levels were in the right order. The arrange function only emporarily sorts the data but re-ordering the factor levels permanently changes the order of the levels.

``` r
singerData$year <- fct_reorder(singerData$year, singerData$artist_hotttnesss, mean, .desc = TRUE)

singerData %>%
  group_by(year) %>%
  summarize(mean_hotness=mean(artist_hotttnesss)) %>%
  arrange(desc(mean_hotness))
```

    ## # A tibble: 69 x 2
    ##      year mean_hotness
    ##    <fctr>        <dbl>
    ##  1   1954    0.5491553
    ##  2   1945    0.4688427
    ##  3   2010    0.4571736
    ##  4   1978    0.4492856
    ##  5   1967    0.4490179
    ##  6   1970    0.4473265
    ##  7   1971    0.4463278
    ##  8   1987    0.4442072
    ##  9   1981    0.4438614
    ## 10   1984    0.4427675
    ## # ... with 59 more rows
…
